<?xml version="1.0" standalone="no"?>
<!DOCTYPE svg PUBLIC "-//W3C//DTD SVG 20010904//EN"
 "http://www.w3.org/TR/2001/REC-SVG-20010904/DTD/svg10.dtd">
<svg version="1.0" xmlns="http://www.w3.org/2000/svg"
 width="768.000000pt" height="770.000000pt" viewBox="0 0 768.000000 770.000000"
 preserveAspectRatio="xMidYMid meet">
<metadata>
Created by potrace 1.13, written by Peter Selinger 2001-2015
</metadata>
<g transform="translate(0.000000,770.000000) scale(0.100000,-0.100000)"
fill="#000000" stroke="none">
<path d="M2630 7640 c-244 -47 -459 -162 -637 -341 -107 -108 -142 -170 -209
-376 -66 -206 -91 -265 -144 -342 -100 -149 -267 -252 -710 -438 -295 -124
-442 -193 -523 -246 -168 -111 -226 -182 -284 -354 -31 -92 -36 -121 -36 -198
-1 -158 45 -369 104 -487 10 -20 65 -77 121 -126 212 -184 310 -306 348 -430
25 -79 25 -135 1 -187 -27 -60 -59 -94 -225 -234 -184 -155 -246 -223 -294
-321 -35 -69 -37 -80 -36 -165 0 -77 5 -102 32 -169 69 -176 233 -408 617
-876 560 -683 610 -780 634 -1230 11 -193 14 -206 91 -360 78 -157 108 -182
239 -206 143 -25 354 -14 611 32 47 8 243 46 435 84 604 119 795 148 1040 157
211 7 286 -4 396 -59 99 -49 200 -143 358 -332 188 -226 262 -283 379 -293
119 -11 228 44 384 195 160 153 304 331 667 821 351 474 471 611 535 611 182
0 703 241 837 387 112 122 118 284 20 564 -43 121 -84 188 -240 389 -62 79
-124 167 -138 195 -14 27 -36 67 -49 87 -13 21 -24 47 -24 59 0 40 80 175 152
257 40 45 137 149 215 232 168 178 251 286 304 393 119 244 61 391 -306 777
-285 300 -358 390 -398 494 -15 41 -18 68 -14 141 4 94 12 121 98 340 68 175
60 250 -31 313 -67 45 -174 63 -489 82 -272 16 -390 41 -439 93 -48 51 -54 87
-47 276 7 166 6 179 -15 234 -12 32 -35 73 -51 92 -119 135 -740 296 -1297
335 -312 22 -440 -16 -749 -227 -160 -109 -232 -143 -300 -143 -83 0 -119 39
-208 225 -79 165 -114 213 -178 243 -116 54 -357 68 -547 32z m445 -130 c114
-44 153 -107 100 -164 -28 -31 -78 -35 -145 -11 -78 28 -291 17 -445 -22 -113
-28 -345 -139 -485 -232 -46 -30 -63 -36 -110 -36 -53 0 -55 1 -58 28 -3 22 9
40 60 93 138 145 359 282 523 326 168 45 178 46 340 44 140 -2 167 -5 220 -26z
m1130 -494 c473 -72 943 -258 1275 -506 19 -15 62 -46 94 -71 33 -24 104 -83
157 -131 56 -50 99 -82 102 -75 5 16 37 -9 37 -30 0 -8 26 -42 59 -76 103
-109 270 -338 373 -514 263 -446 398 -938 398 -1456 0 -148 -23 -453 -35 -466
-7 -7 -6 12 10 164 68 640 -90 1305 -436 1841 -77 118 -160 234 -169 234 -3 0
-4 -16 -2 -36 12 -98 -87 -143 -194 -89 -27 14 -50 25 -50 25 -1 0 -4 -28 -7
-62 -3 -35 -11 -106 -17 -158 -14 -105 -5 -200 31 -316 19 -63 39 -84 39 -43
0 29 62 89 93 89 63 0 137 -90 137 -168 0 -112 -70 -157 -124 -80 -20 28 -21
92 -1 108 20 16 45 5 45 -20 0 -17 -4 -19 -25 -14 -18 4 -25 2 -25 -8 0 -37
59 -51 92 -21 11 10 18 30 18 53 0 97 -130 127 -175 40 -19 -36 -14 -130 8
-164 38 -57 128 -85 181 -56 43 22 56 54 63 150 7 108 25 144 80 159 86 24
163 -32 163 -119 0 -37 4 -51 21 -62 20 -13 18 -15 -47 -41 -37 -15 -70 -24
-73 -22 -2 3 5 15 16 28 32 35 43 62 43 109 0 54 -18 81 -50 76 -27 -3 -32
-18 -48 -136 -13 -94 -46 -146 -109 -174 -115 -51 -270 30 -288 149 -4 26 -28
82 -56 132 -89 154 -101 232 -70 424 21 127 26 221 15 251 -8 20 -31 8 -90
-46 -48 -45 -51 -55 -28 -99 8 -17 14 -38 12 -47 -3 -11 -24 14 -62 71 -32 48
-77 103 -99 123 -36 31 -38 36 -17 30 14 -4 46 -9 72 -13 45 -5 51 -3 147 61
176 117 187 149 84 243 -397 358 -813 580 -1303 697 -237 57 -363 70 -660 70
-237 0 -295 -3 -419 -22 -79 -13 -145 -21 -148 -19 -7 8 197 38 337 51 101 9
529 -3 625 -18z m-976 -40 c-3 -3 -47 -14 -99 -25 -290 -64 -641 -217 -920
-404 -173 -115 -375 -281 -364 -298 3 -5 26 -15 51 -22 l46 -14 -47 -22 c-46
-23 -106 -93 -106 -125 0 -12 100 -106 328 -310 19 -17 27 -19 52 -9 35 13 39
4 9 -23 -12 -10 -34 -46 -50 -79 l-28 -60 0 41 c-1 41 -5 45 -152 180 -188
173 -206 187 -220 178 -25 -15 -69 -99 -69 -133 0 -51 -17 -74 -25 -35 -7 31
-19 68 -30 97 -6 13 -2 17 15 17 12 0 30 4 40 10 21 11 122 143 157 206 25 44
24 84 -1 84 -11 0 -104 -97 -208 -215 -51 -59 -178 -229 -230 -310 -203 -317
-344 -674 -413 -1055 -13 -69 -24 -111 -24 -95 -1 37 49 284 79 386 247 857
878 1557 1705 1892 183 74 535 174 504 143z m729 -53 c72 -26 82 -77 25 -129
l-37 -34 36 0 c111 0 151 -75 90 -171 -33 -51 -87 -92 -162 -120 -58 -22 -189
-49 -235 -49 -26 1 -28 2 -12 11 38 22 47 70 47 249 0 180 -6 210 -42 210 -37
0 -13 10 83 35 98 24 134 24 207 -2z m-688 -112 c68 -48 61 -123 -19 -192
l-49 -42 51 -32 c210 -130 240 -145 314 -165 43 -12 125 -25 183 -29 l105 -6
-50 -12 c-132 -32 -272 -24 -371 21 -28 13 -99 56 -157 95 -99 68 -202 119
-215 106 -8 -8 18 -117 34 -142 12 -19 23 -23 65 -23 82 0 55 -23 -43 -37 -47
-7 -110 -21 -139 -32 -29 -11 -54 -19 -56 -17 -2 2 13 23 33 47 40 48 40 49
14 229 -19 125 -34 146 -125 175 -19 6 -19 7 -2 17 10 5 28 7 40 4 12 -3 53 6
92 21 121 44 243 50 295 14z m1364 -16 c7 -20 31 -19 63 2 26 17 27 17 19 -2
-4 -11 -10 -50 -13 -87 -6 -69 -16 -80 -28 -31 -10 42 -54 83 -88 83 -35 0
-77 -41 -115 -114 -24 -45 -27 -62 -27 -146 0 -83 3 -101 25 -140 36 -64 116
-102 225 -108 44 -2 97 0 118 6 20 6 37 6 37 1 0 -18 -112 -41 -184 -37 -134
6 -241 80 -298 204 -29 64 -31 171 -3 229 25 52 87 112 138 136 52 23 122 25
131 4z m6 -205 c60 -65 92 -76 105 -37 6 18 8 19 12 5 7 -29 -15 -57 -56 -69
-63 -19 -87 -6 -134 67 -36 57 -44 64 -65 59 -29 -7 -20 12 12 25 48 20 69 12
126 -50z m-2173 -10 c-10 -25 -9 -36 5 -58 10 -15 30 -49 45 -76 61 -106 149
-232 171 -242 24 -12 23 -12 -12 -24 -20 -6 -54 -27 -77 -46 -22 -19 -43 -34
-45 -34 -2 0 -1 13 2 29 8 38 -71 211 -95 211 -26 0 -104 -53 -138 -94 -16
-20 -36 -55 -43 -76 -12 -36 -11 -46 14 -114 16 -42 43 -96 62 -121 33 -42
123 -105 152 -105 7 0 40 20 74 45 57 41 62 48 63 83 3 108 181 201 284 148
26 -14 36 -12 144 28 123 46 292 92 367 100 35 4 31 2 -20 -10 -126 -29 -306
-83 -375 -112 l-70 -29 0 -44 c-1 -84 -75 -166 -204 -228 -73 -35 -80 -36
-188 -37 l-111 0 -49 -40 c-26 -21 -85 -77 -131 -124 -236 -240 -419 -549
-510 -860 -16 -58 -35 -121 -41 -140 -10 -34 -10 -34 -5 10 9 67 86 293 142
411 112 240 235 412 442 620 l135 136 -47 23 c-75 35 -152 115 -177 183 -46
126 -36 287 24 403 19 35 30 64 25 64 -5 0 -52 -44 -106 -97 -77 -79 -95 -93
-90 -71 3 15 9 55 13 88 l6 60 37 -6 c48 -8 155 43 255 121 39 30 73 55 77 55
3 0 1 -14 -5 -30z m2820 -26 c14 -22 22 -25 50 -21 18 3 33 4 33 2 0 -1 -9
-22 -20 -46 -11 -24 -20 -56 -20 -71 0 -15 -4 -29 -9 -32 -10 -6 -21 26 -21
61 0 33 -47 83 -77 83 -43 0 -129 -74 -162 -140 -28 -54 -44 -136 -39 -198 5
-53 8 -59 62 -109 45 -42 71 -57 129 -75 39 -12 93 -22 119 -22 72 -1 40 -17
-36 -17 -202 -2 -356 144 -356 336 0 77 26 142 79 195 54 53 115 78 193 79 51
1 59 -2 75 -25z m-43 -201 c42 -78 70 -98 93 -67 17 23 28 12 14 -15 -13 -23
-67 -41 -104 -34 -37 7 -59 36 -83 106 -17 50 -25 63 -45 66 -23 3 -23 4 -4
12 11 4 36 7 55 6 33 -2 38 -7 74 -74z m-586 -239 c324 -133 620 -349 849
-619 133 -157 280 -411 357 -618 40 -106 97 -315 95 -350 0 -12 -10 16 -20 63
-48 212 -155 474 -263 649 -235 378 -586 680 -981 846 -150 63 -152 64 -137
64 7 1 52 -15 100 -35z m-3428 -1 c-138 -100 -226 -158 -285 -187 -97 -48
-257 -204 -299 -291 -31 -64 -54 -183 -60 -310 -8 -158 -19 -205 -56 -240 -36
-34 -108 -44 -160 -23 -39 17 -104 68 -96 76 3 2 1 12 -4 21 -4 9 -14 54 -20
100 -10 75 -9 96 11 198 26 135 46 171 159 284 76 76 180 139 305 184 28 10
55 22 60 26 6 4 39 14 75 23 35 9 82 25 105 36 22 11 68 30 101 43 34 14 79
36 100 51 21 14 50 26 64 26 l24 0 -24 -17z m2877 -214 c19 -12 39 -33 44 -46
5 -13 9 -89 9 -168 0 -134 2 -150 30 -227 41 -117 71 -241 77 -325 7 -88 -8
-135 -77 -238 -69 -104 -68 -103 -35 -81 62 40 105 78 127 114 22 36 23 44 23
277 l0 240 27 51 c32 60 88 120 177 189 81 61 119 65 162 17 38 -42 38 -82 -2
-208 -16 -55 -31 -121 -32 -149 -3 -97 3 -255 11 -255 4 0 18 26 32 57 42 97
118 158 268 214 118 44 149 38 177 -34 15 -41 15 -47 0 -83 -9 -21 -38 -70
-64 -109 -68 -98 -80 -125 -101 -223 -23 -106 -68 -239 -103 -307 -44 -86 -90
-120 -274 -200 -40 -17 -70 -35 -66 -38 3 -4 33 -7 65 -7 103 0 154 40 291
230 94 131 136 171 212 207 57 26 68 28 197 28 131 0 137 -1 162 -24 20 -19
26 -34 26 -67 0 -56 -28 -89 -141 -164 -88 -60 -122 -95 -194 -205 -22 -33
-83 -103 -135 -156 -109 -110 -124 -116 -280 -126 -55 -3 -100 -10 -100 -14 0
-4 26 -17 58 -29 88 -33 126 -22 308 96 137 88 187 108 269 108 74 0 133 -16
240 -65 77 -34 109 -71 101 -113 -15 -74 -49 -95 -205 -125 -108 -21 -132 -31
-225 -95 l-62 -43 64 -11 c76 -13 145 -52 237 -135 103 -93 115 -133 56 -196
-25 -27 -36 -31 -79 -31 -28 0 -94 7 -147 16 -92 16 -98 16 -179 -5 -105 -26
-268 -51 -343 -52 l-58 -1 85 -19 c188 -41 274 -105 344 -252 67 -143 70 -192
13 -227 -58 -36 -87 -28 -215 54 -88 57 -125 72 -214 85 -91 15 -266 65 -320
92 -36 18 -31 11 45 -63 134 -130 165 -228 138 -428 -14 -104 -33 -130 -97
-130 -58 0 -92 31 -142 127 -50 97 -91 154 -130 182 l-30 21 5 -64 c7 -82 -9
-149 -62 -263 -55 -117 -90 -137 -163 -93 -40 25 -49 46 -74 185 -16 91 -26
122 -61 180 -23 39 -70 126 -105 195 -35 69 -61 112 -58 95 50 -284 28 -374
-128 -530 -89 -89 -123 -106 -163 -80 -71 47 -78 83 -43 227 24 101 25 160 4
258 -10 47 -17 129 -18 220 -1 168 6 189 100 297 30 33 54 64 54 67 0 15 -81
-37 -108 -70 -37 -44 -56 -111 -77 -271 -9 -67 -23 -148 -31 -180 -31 -119
-111 -200 -277 -279 -84 -40 -109 -37 -146 14 -34 48 -27 85 39 217 55 110 61
128 70 218 22 210 64 359 119 420 20 22 64 58 99 80 35 21 61 41 59 43 -2 2
-27 -3 -56 -13 -89 -28 -128 -73 -219 -250 -92 -178 -122 -219 -187 -257 -95
-56 -324 -91 -360 -55 -23 23 -36 86 -24 118 6 14 54 69 107 121 92 89 102
103 164 228 36 72 63 132 60 132 -3 0 -27 -21 -54 -46 -27 -25 -74 -57 -105
-71 -52 -24 -62 -25 -172 -20 -127 6 -215 27 -231 57 -17 32 -12 95 11 124 12
15 68 49 127 78 100 47 115 59 242 182 220 215 246 227 454 219 75 -3 136 -3
136 1 0 4 -21 16 -47 28 -76 34 -130 27 -299 -36 -82 -31 -173 -61 -203 -67
-104 -22 -200 6 -330 98 -107 74 -119 101 -80 167 27 46 61 56 193 56 116 1
122 2 305 72 l64 25 -57 7 c-88 10 -142 41 -232 131 -126 128 -144 186 -76
242 36 30 88 29 193 -3 93 -29 119 -30 383 -19 l179 8 -81 32 c-170 69 -233
148 -287 361 -23 89 -11 120 51 142 55 20 82 9 193 -81 101 -81 117 -90 198
-111 34 -9 109 -36 167 -60 l105 -44 -59 70 c-74 88 -95 145 -95 258 1 125 22
218 56 253 25 24 33 27 66 21 64 -11 79 -28 142 -158 51 -107 68 -132 126
-187 96 -92 214 -235 241 -293 19 -40 24 -69 25 -136 l1 -85 15 35 c27 61 19
131 -37 315 -67 220 -70 278 -18 386 37 78 116 189 151 214 29 20 53 19 94 -6z
m-2236 -264 c50 -33 85 -81 100 -137 11 -41 11 -55 -5 -104 -23 -73 -77 -132
-128 -141 -32 -5 -41 -1 -67 24 -35 36 -55 101 -46 153 9 54 68 120 106 120
50 0 77 -80 42 -130 -21 -32 -33 -39 -49 -33 -17 6 -24 27 -14 43 7 11 11 11
24 1 15 -13 36 -7 36 10 0 17 -40 49 -60 49 -51 0 -87 -79 -60 -131 13 -23 61
-49 93 -49 56 0 107 72 107 151 0 85 -56 149 -131 149 -50 0 -81 -27 -129
-115 -23 -41 -51 -82 -63 -90 -49 -35 -141 -6 -172 54 -20 39 -19 72 2 116 14
29 15 40 5 56 -12 18 -9 19 58 19 39 0 70 -4 70 -10 0 -5 -18 -19 -41 -30 -29
-15 -46 -33 -60 -63 -23 -51 -24 -71 -3 -91 26 -27 41 -18 84 52 55 87 86 120
135 144 51 24 115 17 166 -17z m-83 -2125 c101 -320 288 -629 523 -861 331
-327 733 -530 1204 -608 85 -14 100 -19 51 -15 -109 9 -288 50 -435 100 -538
181 -1001 591 -1242 1099 -61 128 -126 310 -153 428 -24 104 -17 114 9 12 12
-49 32 -119 43 -155z m4862 93 c-98 -544 -385 -1086 -788 -1491 -345 -347
-745 -588 -1209 -731 -71 -22 -147 -42 -169 -45 l-39 -6 35 11 c19 6 82 25
140 42 405 117 786 329 1103 612 315 281 555 611 727 1000 83 189 146 390 186
592 10 51 20 90 22 88 3 -2 -1 -35 -8 -72z m-6112 12 l32 -35 0 -209 c0 -154
4 -229 16 -283 9 -40 22 -101 29 -136 8 -34 23 -75 33 -90 11 -15 34 -55 51
-89 18 -34 36 -65 41 -68 15 -9 12 -75 -2 -75 -19 0 -29 10 -67 60 -19 25 -65
79 -101 120 -108 122 -180 226 -257 370 l-73 135 1 80 c0 44 5 92 12 107 20
43 83 105 134 133 64 33 107 28 151 -20z m5308 -258 c-36 -96 -130 -275 -199
-380 -258 -394 -667 -708 -1117 -857 -63 -22 -133 -41 -155 -44 -38 -6 -37 -5
10 9 166 52 210 67 298 105 418 180 755 469 993 853 58 93 151 281 174 350 6
21 14 36 16 34 3 -2 -6 -34 -20 -70z m-4702 -320 c142 -342 355 -657 626 -927
415 -414 906 -676 1483 -791 81 -16 160 -29 175 -30 15 0 21 -3 13 -6 -29 -12
-292 41 -481 97 -326 97 -697 293 -967 511 -109 88 -300 276 -397 389 -227
265 -409 584 -527 927 -22 61 -39 117 -38 125 0 7 17 -36 38 -97 21 -60 55
-150 75 -198z m1540 -916 c60 -40 82 -104 50 -149 -20 -29 -60 -29 -70 0 -5
16 0 27 20 44 33 29 33 49 1 70 -35 23 -83 11 -135 -33 -40 -35 -70 -84 -70
-117 0 -8 12 -28 26 -45 21 -25 33 -31 65 -31 39 0 53 -15 24 -26 -32 -13 -89
8 -127 46 -34 33 -38 43 -38 87 0 122 157 218 254 154z m2412 -3 c16 -12 53
-44 82 -70 52 -46 84 -59 97 -38 9 15 25 12 25 -4 0 -24 -41 -66 -65 -66 -18
0 -24 -7 -29 -35 -10 -52 -51 -95 -90 -95 -37 0 -73 29 -82 66 -4 16 4 52 21
101 l28 76 -23 19 c-33 27 -76 23 -96 -8 -17 -25 -16 -26 9 -50 22 -20 25 -29
17 -44 -6 -11 -19 -20 -28 -20 -65 0 -53 104 18 164 38 32 78 33 116 4z m-125
-376 c46 6 26 -18 -36 -46 -68 -30 -90 -29 -61 3 17 18 15 24 -33 125 -47 101
-51 106 -80 106 -44 0 -38 16 17 44 l47 25 62 -130 c54 -114 65 -130 84 -127z
m-2024 211 c18 -13 36 -35 39 -49 8 -29 -1 -103 -13 -115 -4 -4 -48 10 -98 31
-49 21 -94 35 -99 30 -4 -4 -10 -28 -13 -52 -4 -37 -1 -49 21 -75 33 -39 68
-48 109 -28 40 20 59 3 22 -21 -34 -22 -100 -22 -143 0 -69 36 -92 128 -52
212 25 51 48 72 97 90 47 16 88 9 130 -23z m1785 -37 c15 -33 4 -56 -27 -56
-17 0 -28 7 -33 20 -8 20 -8 20 -32 -5 l-24 -26 17 -64 c36 -134 39 -140 75
-143 17 -2 32 -7 32 -11 0 -11 -150 -55 -158 -46 -4 4 1 12 11 19 22 17 22 25
-9 131 -28 96 -46 125 -76 125 -33 0 -19 16 30 33 57 21 62 21 62 2 0 -22 8
-19 37 15 32 39 78 42 95 6z m-1589 -23 c4 -2 7 -13 7 -23 0 -18 2 -18 35 -4
32 13 41 13 81 -1 24 -8 60 -15 79 -15 58 0 88 -22 46 -33 -19 -5 -19 -8 6
-105 15 -56 30 -99 34 -96 13 8 89 150 89 167 0 8 -7 17 -15 21 -8 3 -15 11
-15 17 0 8 15 10 52 5 69 -9 75 -15 41 -36 -19 -11 -55 -63 -102 -144 -40 -70
-78 -125 -84 -123 -5 1 -28 66 -49 142 -22 77 -44 146 -50 152 -8 10 -15 7
-30 -12 -16 -20 -23 -23 -39 -15 -10 6 -19 20 -19 30 0 26 -41 27 -62 3 -8
-10 -25 -58 -36 -108 l-21 -90 27 -22 c14 -12 24 -25 21 -28 -10 -10 -160 28
-156 39 2 6 13 12 25 14 23 4 28 17 58 153 l18 82 -22 15 c-36 24 -26 34 26
26 26 -3 50 -8 55 -11z m1296 -59 c28 -23 56 -87 46 -104 -3 -4 -47 -13 -100
-20 -105 -14 -111 -20 -80 -80 37 -72 130 -80 166 -14 11 21 39 34 39 18 0
-22 -42 -68 -78 -85 -77 -38 -148 -11 -189 71 -42 81 -23 177 43 220 44 30
114 27 153 -6z m-287 -34 c34 -42 13 -99 -32 -85 -16 5 -20 15 -20 46 0 38 -1
39 -33 39 -45 0 -69 -28 -75 -89 -10 -108 25 -171 97 -171 32 0 44 6 66 31 33
40 56 26 24 -14 -67 -86 -195 -72 -239 26 -39 85 -11 190 60 229 48 26 126 20
152 -12z m-325 0 c23 -13 35 -31 43 -60 20 -74 18 -75 -98 -72 l-102 4 0 -26
c0 -38 25 -93 48 -105 37 -20 91 -13 118 14 25 25 44 32 44 16 0 -17 -64 -70
-92 -76 -114 -25 -210 86 -178 205 15 55 36 87 69 105 38 21 110 18 148 -5z"/>
<path d="M5879 6037 c-78 -45 -89 -55 -89 -89 0 -42 66 -108 107 -108 40 0 79
32 93 76 10 29 9 43 -4 79 -9 23 -24 50 -34 58 -16 14 -22 13 -73 -16z"/>
<path d="M3807 6924 c-4 -4 -7 -52 -7 -106 0 -98 0 -99 23 -93 70 22 124 84
113 130 -10 39 -107 91 -129 69z"/>
<path d="M3828 6719 c-22 -8 -28 -19 -34 -56 -7 -47 1 -201 11 -211 8 -8 90
23 143 54 84 50 104 153 36 194 -38 24 -118 34 -156 19z"/>
<path d="M3037 6783 c-11 -11 4 -146 19 -170 11 -17 24 -23 50 -23 114 0 164
92 90 166 -31 31 -39 34 -93 34 -33 0 -63 -3 -66 -7z"/>
<path d="M2322 6465 c-32 -40 -62 -120 -62 -168 l0 -31 53 56 c28 31 67 63 85
72 l33 17 -18 31 c-10 17 -28 37 -39 45 -20 13 -24 11 -52 -22z"/>
<path d="M2863 6032 c-19 -9 -33 -23 -33 -33 0 -49 -92 -107 -148 -92 -29 7
-158 -75 -141 -92 5 -5 47 -10 92 -10 96 0 149 20 217 81 61 55 84 113 58 146
-12 15 -16 15 -45 0z"/>
<path d="M4014 5751 c-108 -147 -110 -185 -27 -451 36 -117 45 -160 45 -221 1
-87 -25 -158 -81 -222 -34 -38 -34 -39 20 -51 31 -7 45 7 116 114 72 107 83
133 83 187 0 60 -40 227 -76 319 -24 61 -28 86 -33 225 l-6 157 -41 -57z"/>
<path d="M3350 5620 c-14 -93 -9 -154 19 -208 11 -21 78 -100 149 -175 164
-172 187 -214 187 -340 0 -94 2 -97 61 -81 20 5 22 15 28 143 5 93 4 146 -4
166 -16 41 -153 208 -212 258 -67 56 -111 118 -157 223 -22 49 -44 90 -49 92
-5 1 -15 -34 -22 -78z"/>
<path d="M4507 5550 c-109 -102 -112 -112 -103 -358 6 -163 4 -206 -8 -248
-21 -69 -65 -127 -136 -177 -32 -23 -59 -44 -59 -47 0 -3 17 -18 40 -33 l40
-29 37 28 c20 16 74 65 119 109 64 63 84 89 93 123 7 28 11 127 9 270 l-2 227
31 95 c18 52 32 98 32 103 0 18 -23 2 -93 -63z"/>
<path d="M2780 5402 c0 -20 34 -121 55 -162 44 -86 86 -112 295 -185 74 -26
153 -57 175 -70 83 -48 143 -134 160 -227 8 -42 15 -45 49 -23 24 16 24 16 9
83 -20 88 -69 214 -96 248 -27 34 -171 103 -312 149 -125 40 -165 62 -255 139
-64 55 -80 64 -80 48z"/>
<path d="M4946 5253 c-91 -38 -143 -79 -171 -137 -13 -28 -44 -123 -68 -211
-24 -88 -53 -178 -64 -200 -40 -78 -110 -134 -206 -165 -21 -6 -37 -15 -35
-18 2 -4 10 -19 17 -34 8 -16 20 -28 28 -28 25 0 255 109 281 132 13 13 32 39
42 58 23 46 86 243 95 300 12 72 41 136 105 230 33 48 60 90 60 93 0 12 -23 6
-84 -20z"/>
<path d="M2370 4904 c0 -19 115 -136 158 -162 46 -26 49 -27 177 -22 72 2 182
4 245 5 105 0 119 -2 165 -27 28 -14 79 -56 114 -92 l64 -67 28 33 c15 18 28
38 29 44 0 7 -35 42 -78 79 -43 36 -91 82 -106 102 -48 59 -92 73 -240 73 -71
0 -168 -5 -215 -11 -82 -11 -92 -11 -191 16 -141 37 -150 39 -150 29z"/>
<path d="M5142 4711 c-68 -24 -82 -37 -217 -217 -148 -196 -204 -234 -348
-234 l-70 0 7 -42 c4 -23 8 -44 10 -45 9 -10 301 19 325 32 41 21 162 155 231
256 67 98 107 137 208 202 40 26 72 51 72 57 0 18 -159 11 -218 -9z"/>
<path d="M3706 4704 c-153 -37 -310 -163 -380 -305 -165 -335 -1 -732 349
-841 92 -29 244 -31 325 -4 209 70 362 238 406 446 67 316 -129 632 -437 705
-79 18 -185 18 -263 -1z m257 -268 c71 -34 139 -110 167 -184 31 -81 25 -205
-14 -280 -35 -70 -95 -128 -165 -161 -77 -36 -201 -37 -276 -1 -164 79 -240
274 -175 445 31 79 113 163 190 193 79 32 195 26 273 -12z"/>
<path d="M3724 4356 c-87 -38 -146 -130 -146 -229 0 -96 40 -168 121 -215 38
-22 58 -27 117 -27 61 0 77 4 120 30 74 46 108 109 112 204 3 69 0 81 -27 128
-33 56 -77 94 -130 112 -45 15 -129 13 -167 -3z"/>
<path d="M2730 4520 c-52 -16 -135 -45 -185 -66 -84 -35 -98 -38 -225 -43
l-135 -6 76 -51 c86 -58 150 -79 212 -71 24 3 111 31 192 62 82 31 172 59 199
63 77 12 152 -4 234 -49 41 -21 77 -39 82 -39 4 0 11 11 14 24 3 13 8 31 11
39 4 10 -18 27 -77 57 -46 24 -108 59 -138 77 -70 42 -127 43 -260 3z"/>
<path d="M2736 4141 c-32 -16 -99 -73 -190 -164 -133 -131 -147 -142 -243
-189 -57 -27 -105 -53 -108 -58 -9 -14 27 -22 121 -27 136 -8 145 -3 315 164
190 186 214 198 373 190 61 -3 121 -8 134 -12 21 -7 22 -5 22 49 0 37 -4 58
-12 61 -7 2 -91 5 -187 8 -170 3 -176 3 -225 -22z"/>
<path d="M5185 4133 c-22 -9 -93 -50 -159 -91 -162 -101 -197 -116 -277 -117
-56 0 -75 5 -145 40 -43 22 -82 41 -85 43 -4 1 -9 -10 -12 -26 -3 -17 -9 -41
-12 -54 -4 -17 -2 -27 7 -31 7 -3 63 -26 123 -52 67 -28 132 -48 165 -52 51
-4 62 -1 170 52 63 31 135 72 160 90 75 55 139 82 249 104 57 12 105 21 107
21 2 0 4 4 4 9 0 10 -99 55 -155 70 -54 15 -93 13 -140 -6z"/>
<path d="M3002 3871 c-68 -16 -135 -37 -150 -48 -41 -30 -115 -144 -183 -283
-57 -118 -67 -130 -157 -217 l-97 -93 40 0 c61 0 148 24 198 53 51 30 79 72
173 257 91 179 158 237 319 276 39 9 71 18 73 19 1 1 -3 16 -9 33 -10 28 -15
32 -47 31 -21 0 -92 -13 -160 -28z"/>
<path d="M4409 3744 c-18 -30 -20 -38 -8 -48 83 -77 225 -186 255 -196 42 -14
157 -8 264 15 238 49 216 47 333 30 59 -9 113 -14 120 -12 17 6 -99 111 -153
139 -60 30 -129 28 -295 -7 -177 -39 -271 -39 -346 -2 -31 15 -75 48 -98 72
-23 25 -43 45 -45 45 -3 0 -14 -16 -27 -36z"/>
<path d="M3226 3625 c-116 -66 -146 -92 -171 -149 -22 -50 -54 -207 -73 -360
-8 -65 -20 -100 -65 -190 -31 -61 -51 -113 -46 -114 18 -7 136 68 176 111 50
54 68 107 88 262 19 144 39 235 61 276 24 46 83 107 131 136 l44 26 -22 23
c-12 13 -27 24 -33 24 -7 0 -47 -20 -90 -45z"/>
<path d="M4223 3553 l-33 -25 71 -139 c46 -92 80 -145 99 -159 48 -34 226 -88
345 -105 73 -10 140 -38 235 -99 47 -30 87 -51 88 -45 6 17 -64 153 -99 194
-45 51 -85 67 -272 109 -176 39 -246 67 -295 117 -39 40 -78 102 -87 142 -10
37 -15 39 -52 10z"/>
<path d="M3507 3472 c-13 -20 -47 -63 -75 -94 -28 -31 -56 -74 -62 -94 -15
-46 -7 -224 15 -341 20 -105 19 -166 -5 -275 -12 -50 -19 -96 -16 -102 7 -18
127 115 152 169 29 62 30 101 4 280 -33 233 -24 305 51 404 l39 51 -39 20 -39
19 -25 -37z"/>
<path d="M3960 3410 c-31 -60 -28 -189 5 -256 24 -49 148 -177 263 -272 57
-47 90 -92 148 -199 21 -40 42 -73 45 -73 8 0 19 80 19 140 0 25 -7 70 -15 98
-17 57 -58 103 -242 270 -118 107 -150 160 -160 265 -5 56 -9 67 -24 67 -12 0
-26 -15 -39 -40z"/>
<path d="M3766 3426 c-2 -6 -18 -55 -36 -110 -23 -71 -31 -110 -28 -141 7 -56
74 -205 141 -312 58 -93 78 -149 98 -276 6 -43 15 -80 19 -82 14 -9 72 147 77
206 7 74 -10 123 -92 264 -106 183 -119 218 -117 305 0 41 3 91 4 109 3 32 0
35 -30 42 -22 4 -35 3 -36 -5z"/>
</g>
</svg>
